<?xml version="1.0"?>
<robot>
  <material name="basement">
    <color rgba="0.15 0.15 0.15 1.0" name="grey15"/>
  </material>

  <material name="toolstack">
    <color rgba="0.35 0.35 0.35 1.0" name="grey35"/>
  </material>

  <material name="AbbCover">
    <color rgba="1.0 0.5 0.0 1.0" name="DarkOrange1"/>
  </material>
  <material name="AbbCoverModern">
    <color rgba="1.0 1.0 1.0 1.0" name="White"/>
  </material>

  <material name="YaskawaCover">
    <color rgba="1.0 1.0 1.0 1.0" name="White"/>
  </material>

  <material name="YaskawaCoverBlue">
    <color name="Blue" rgba="0.0 0.4 0.8 1.0"/>
  </material>

  <material name="FanucCover">
    <color rgba="0.96 0.76 0.13 1.0" name="SandyBrown"/>
  </material>

  <material name="KukaCover">
    <color rgba="0.96 0.47 0.16 1.0" name="Pastel orange"/>
  </material>

  <material name="SliderCover">
    <color rgba="1.0 0.6 0.2 1.0" name="Tan1"/>
  </material>

  <material name="PoserCover">
    <color rgba="1.0 0.65 0.0 1.0" name="DarkOrange"/>
  </material>

  <material name="AbagyCover">
    <color rgba="0.9 0.14 0.4 1.0" name="Pink"/>
  </material>
</robot>
